<?xml version="1.0" standalone="no"?>
<!DOCTYPE svg PUBLIC "-//W3C//DTD SVG 20010904//EN"
 "http://www.w3.org/TR/2001/REC-SVG-20010904/DTD/svg10.dtd">
<svg version="1.0" xmlns="http://www.w3.org/2000/svg"
 width="260.000000pt" height="260.000000pt" viewBox="0 0 260.000000 260.000000"
 preserveAspectRatio="xMidYMid meet">
<metadata>
Created by potrace 1.11, written by Peter Selinger 2001-2013
</metadata>
<g transform="translate(0.000000,260.000000) scale(0.100000,-0.100000)"
fill="#000000" stroke="none">
<path d="M0 1300 l0 -1300 1300 0 1300 0 0 1300 0 1300 -1300 0 -1300 0 0
-1300z m560 745 l0 -295 593 -2 592 -3 3 -147 3 -148 -746 0 -745 0 0 445 0
445 150 0 150 0 0 -295z m1780 -745 l0 -1040 -742 2 -743 3 0 145 0 145 593 3
592 2 0 740 0 740 -592 2 -593 3 -3 134 c-1 74 0 141 2 148 4 11 147 13 746
13 l740 0 0 -1040z m-592 -297 l-3 -148 -592 -3 -593 -2 0 -295 0 -295 -150 0
-150 0 0 445 0 445 745 0 746 0 -3 -147z"/>
</g>
</svg>
